Stefan,Djurovic,07/28/1998,Male,ew0ny,123,6118,False,False
Dejan,Dejanovic,02/24/2001,Male,deki,123,6384,False,False
Marija,Marija,04/21/1997,Female,marija,123,0,False,False
Sara,Sara,12/21/2000,Female,sara,123,14630,False,False
