Love,ew0ny1,Other,1750,2,0,1,2500,1000/250/500,9/30/2020 8:00:00 AM,Ulica Ljubavi,Vrnjacka Banja,36210,43.61843080183568,20.891037592042455,C:\fakepath\lovefest.jpeg,True,False
Ultra Festival,ew0ny1,Festival,3500,1,1,1,4000,2500/500/500,9/20/2020 9:15:00 AM,Ultra Festival Ulica,Majami,90241,25.778870504852634,-80.19950019495835,C:\fakepath\ultra-festival.png,True,False
Exit,ana,Festival,4100,3,0,2,4500,3500/100/500,10/28/2020 9:15:00 AM,Petrovaradinska Tvrdjava,Novi Sad,20997,45.25724701711822,19.862561576396573,C:\fakepath\14572869_10154530177168698_7285320179593035491_n.png,True,False
Sziget,stefan,Festival,3600,3,1,1,6000,3000/100/500,9/22/2020 7:15:00 AM,Sziget Arena,Budimpesta,75213,47.47637579720936,19.053047560704176,C:\fakepath\sziget.jpeg,True,False
Tomorrowland,stefan,Festival,4600,4,2,1,6000,4000/100/500,8/20/2020 7:15:00 PM,Tomorrowland Arena,Antverpen,87341,51.21548639922819,4.398615078393734,C:\fakepath\images.png,True,False
Vibe,ew0ny1,Concert,1750,0,0,0,1500,1000/250/500,9/18/2020 1:30:00 AM,Trg Topolivaca,Kragujevac,34000,44.007339153051674,20.913450044727362,C:\fakepath\vibe.jpeg,True,False
Arsenal Fest,ew0ny1,Other,3500,0,0,0,2500,3000/300/200,9/21/2020 12:00:00 AM,Trg Topolivaca,Kragujevac,34000,44.00712308438422,20.913537786437136,C:\fakepath\Arsenal-fest-novi-logo2-520x520.png,False,False
