Sara,Djurovic,11/11/1111,Female,ew0ny1,123,1862,False
Djordje,Djurovic,11/11/1111,Male,ew0ny2,123,0,False
Nemanja,Djurovic,11/11/1111,Male,ew0ny3,123,0,False
Mladen,Spika,06/26/1998,Male,Dulek,123,0,False
