Stefan,Djurovic,07/28/1998,Male,ew0ny1,123,0,False,False
Nikola,Nikolic,11/24/1998,Male,nikola,123,0,False,False
Stefan,Stefanovic,05/11/1998,Male,stefan,123,0,False,False
Ana,Ana,09/12/1998,Female,ana,123,0,False,False
