K8SJK31KHZ,Ultra Festival,9/20/2020 9:15:00 AM,9/20/2020 9:15:00 AM,4000,ew0ny,Rezervisana,REGULAR,False
S6QTH7D46K,Ultra Festival,9/20/2020 9:15:00 AM,9/20/2020 6:42:34 PM,8000,ew0ny,Rezervisana,FAN_PIT,False
2HL9WXNJA7,Ultra Festival,9/20/2020 9:15:00 AM,9/20/2020 6:42:34 PM,16000,ew0ny,Rezervisana,VIP,False
0W9RZEP5CC,Love,9/30/2020 8:00:00 AM,9/30/2020 8:00:00 AM,2375,ew0ny,Rezervisana,REGULAR,False
1WMKNR9X5N,Love,9/30/2020 8:00:00 AM,9/20/2020 6:42:40 PM,9500,ew0ny,Rezervisana,VIP,False
YZIGTDXTWW,Sziget,9/22/2020 7:15:00 AM,9/22/2020 7:15:00 AM,6000,sara,Rezervisana,REGULAR,False
PSJJ96694D,Sziget,9/22/2020 7:15:00 AM,9/22/2020 7:15:00 AM,6000,sara,Rezervisana,REGULAR,False
SI14TG4AVF,Sziget,9/22/2020 7:15:00 AM,9/22/2020 7:15:00 AM,6000,sara,Rezervisana,REGULAR,False
Y0OWJAN38W,Sziget,9/22/2020 7:15:00 AM,9/20/2020 6:42:50 PM,12000,sara,Rezervisana,FAN_PIT,False
R6IPWJMDLR,Sziget,9/22/2020 7:15:00 AM,9/20/2020 6:42:50 PM,24000,sara,Rezervisana,VIP,False
UA325P8NXM,Tomorrowland,8/20/2020 7:15:00 PM,10/20/2020 7:15:00 PM,5400,sara,Rezervisana,REGULAR,False
JW7R8YEWA8,Tomorrowland,8/20/2020 7:15:00 PM,10/20/2020 7:15:00 PM,5400,sara,Rezervisana,REGULAR,False
SDAHWV9LIJ,Tomorrowland,8/20/2020 7:15:00 PM,10/20/2020 7:15:00 PM,5400,sara,Rezervisana,REGULAR,False
31ZEUX7W03,Tomorrowland,8/20/2020 7:15:00 PM,9/20/2020 6:42:58 PM,10800,sara,Rezervisana,FAN_PIT,False
C9FVN481R7,Tomorrowland,8/20/2020 7:15:00 PM,9/20/2020 6:42:58 PM,10800,sara,Rezervisana,FAN_PIT,False
F0CM8Q9VFK,Tomorrowland,8/20/2020 7:15:00 PM,9/20/2020 6:42:58 PM,21600,sara,Rezervisana,VIP,False
QWFOSS736K,Exit,10/28/2020 9:15:00 AM,10/28/2020 9:15:00 AM,4500,deki,Rezervisana,REGULAR,False
1R5G6T8O41,Exit,10/28/2020 9:15:00 AM,10/28/2020 9:15:00 AM,4500,deki,Rezervisana,REGULAR,False
WH4LDDYMFD,Exit,10/28/2020 9:15:00 AM,10/28/2020 9:15:00 AM,4500,deki,Rezervisana,REGULAR,False
YMQQMP41D5,Exit,10/28/2020 9:15:00 AM,9/20/2020 6:43:40 PM,18000,deki,Rezervisana,VIP,False
6F5GGX45QP,Exit,10/28/2020 9:15:00 AM,9/20/2020 6:43:40 PM,18000,deki,Rezervisana,VIP,False
